{
  "works": [
    {
      "title": "Four Pages for Melodicas",
      "date": "october 2019",
      "links": [
	{"name": "audio",
	 "location": "https://f002.backblazeb2.com/file/ayoon-public-files/four_pages_for_melodicas.mp3"},
	{"name": "video",
	 "location": "https://youtu.be/d8dNdTSKbFY"},
	{"name": "score",
	 "location": "https://f002.backblazeb2.com/file/ayoon-public-files/four_pages_for_melodicas.pdf"},
      ],
      "description": "a sort of composed improv for melodica orchestra"
    },
    {
      "title": "Live at Babycastles - spectrophone painting and melodicas",
      "date": "september 2019",
      "links": [
	{"name": "audio",
	 "location": "https://f002.backblazeb2.com/file/ayoon-public-files/babycastles_2019_09_20.mp3"},
	{"name": "video",
	 "location": "https://www.youtube.com/watch?v=ITDiNATy8c4"}
      ],
      "description": "live painting and live coding spectrophone sounds"
    },
    {
      "title": "Live at Muchmore's - spectrophone painting and melodicas",
      "date": "august 2019",
      "links": [
	{"name": "audio",
	 "location": "https://f002.backblazeb2.com/file/ayoon-public-files/muchmores_2019_08_14.mp3"},
	{"name": "video",
	 "location": "https://youtu.be/X3dpaE4Hiv8"}
      ],
      "description": "live painting and live coding spectrophone sounds and double melodica"
    },
    {
      "title": "journal/2019-08-12 space spectrophone",
      "date": "august 2019",
      "links": [
	{"name": "video",
	 "location": "https://youtu.be/5BY9-NtaF4g"},
	{"name": "audio",
	 "location": "https://f002.backblazeb2.com/file/ayoon-public-files/journal_2019_08_12.mp3"}
      ],
      "description": "spectrophone improv on a video from the ISS orbiting earth. blue - mostly GM7 square waves; orange/brown/white - detuned D harmonic series (24 partials)"
    },
    {
      "title": "againagain",
      "date": "july 2019",
      "links": [
	{"name": "showing event",
	 "location": "http://www.raylc.org/exhibits/techgood/"},
	{"name": "code",
	 "location": "https://gitlab.com/ajyoon/againagain"}
      ],
      "description": "a dynamic poem in installation; visitors are invited to press a button, generating a unique rendition of a poem and printing it on a receipt for them to take home."
    },
    {
      "title": "sleepy summer day keyboard",
      "date": "july 2019",
      "links": [
	{"name": "video",
	 "location": "https://youtu.be/2gMpzwHzmxI"},
	{"name": "audio",
	 "location": "https://f002.backblazeb2.com/file/ayoon-public-files/sleepy_summer_day_keyboard.mp3"}
      ],
      "description": "lil fake jazz keyboard improv"
    },
    {
      "title": "live at bablecastles: painting, code, and melodicas",
      "date": "june 2019",
      "links": [
	{"name": "audio",
	 "location": "https://f002.backblazeb2.com/file/ayoon-public-files/sun_sounds_2019_06_22.mp3"}
      ],
      "description": "4-color spectrophone, double melodicas, live code, aliens"
    },
    {
      "title": "live at H0L0: painting, code, and melodicas",
      "date": "june 2019",
      "links": [
	{"name": "audio",
	 "location": "https://f002.backblazeb2.com/file/ayoon-public-files/live_at_h0l0_artyparty.mp3"}
      ],
      "description": "3-color spectrophone, double melodicas, live code, aliens"
    },
    {
      "title": "live painting & coding with noise guitar",
      "date": "may 2019",
      "links": [
	{"name": "video",
	 "location": "https://youtu.be/tsutVm6yzxA"},
	{"name": "audio",
	 "location": "https://f002.backblazeb2.com/file/ayoon-public-files/space_2019.mp3"}
      ],
      "description": "live at space, ft dan antoniu on abused guitar; dan and i are doing a semi-structured improv, i'm painting and live coding to make sounds with colors using the spectrophone"
    },
    {
      "title": "othergreen",
      "date": "february 2019",
      "links": [
	{"name": "video",
	 "location": "https://youtu.be/Dkb99L78vXM"},
	{"name": "audio",
	 "location": "https://f002.backblazeb2.com/file/ayoon-public-files/othergreen.mp3"},
      ],
      "description": "for solo spectrophone and watercolors. premiered at spectrum. green: Db harmonic fractal (6 partials per iteration, 3 iterations) Sine waves, Db harmonic series (12 partials) square waves; red: scale of Db, F, Gf, Af, C square waves, light detuning of those pitches with sine waves; blue: equally distributed intervals of 20hz from 220hz to 4400hz sine waves."
    },
    {
      "title": "journal/2018-03-24",
      "date": "march 2018",
      "links": [
	{"name": "recording",
	 "location": "https://youtu.be/UFLdu__FW6w"}
      ],
      "description": "fuzzed harmonic fractals, watercolors, and organ. green - 300 sine waves around a Bb fractal; blue - 300 triangle waves around an Eb fractal; pink - 300 square waves around an Ab fractal; pitches gravitate around harmonic fractals where, from a fundamental, harmonic series are recursively generated based on partials, with a depth of 3 iterations and 6 partials per iteration, giving 216 pitches per fundamental. oscillators are stochastically detuned and octave shifted around these structures. organ is improvised in accompaniment"
    },
    {
      "title": "journal/2018-02-18",
      "date": "february 2018",
      "links": [
	{"name": "recording",
	 "location": "https://youtu.be/eTEie8Iba4I"}
      ],
      "description": "green: harmonic fractal based on superfundamental F; orange: blurred around F and C; violet: blurred around E; blue: blurred around A"
    },
    {
      "title": "journal/2018-01-21.2",
      "date": "january 2018",
      "links": [
	{"name": "recording",
	 "location": "https://youtu.be/3UN5qXKaWx4"}
      ],
      "description": "spectrophone with watercolors, assigning different colors to different harmonic series built on the first 6 partials of G"
    },
    {
      "title": "journal/2018-01-21",
      "date": "january 2018",
      "links": [
	{"name": "recording",
	 "location": "https://youtu.be/IHw1tmVEcXg"}
      ]
    },
    {
      "title": "four pages",
      "duration": "10’ to any duration",
      "date": "january 2018",
      "links": [
	{"name": "recording",
	 "location": "https://www.youtube.com/watch?v=Qc6FD1jxMmM"},
	{"name": "score",
	 "location": "https://f002.backblazeb2.com/file/ayoon-public-files/four_pages.pdf"}
      ],
      "description": "for piano solo"
    },
    {
      "title": "journal/2017-08-19",
      "date": "august 2017",
      "links": [
	{"name": "recording",
	 "location": "https://youtu.be/pzT0J68e3Tw"}
      ]
    },
    {
      "title": "journal/2017-08-18",
      "date": "august 2017",
      "links": [
	{"name": "recording",
	 "location": "https://youtu.be/DPvV_-yzKv4"}
      ]
    },
    {
      "title": "the transistorized radio",
      "duration": "59’",
      "date": "october 2017",
      "links": [
        {"name": "audio",
	 "location": "https://f002.backblazeb2.com/file/ayoon-public-files/the_transistorized_radio.mp3"},
	{"name": "video",
	 "location": "https://youtu.be/eO98X3JIC48"},
	{"name": "code",
	 "location": "https://github.com/ajyoon/spectrophone"}
      ],
      "description": "a meditation on what superimposes what. score: pencil, ink, 6 sheets of copy paper. audio: 6000 oscillators stochastically situated around the pitches db, f, gb, ab, bb, and c with varying weights on different pitches and octaves. samplers. organ"
    },
    {
      "title": "i have heard a wonderful thing",
      "date": "may 2015-january 2017",
      "description": "a book of music-poetry",
      "links": [
        {"name": "read",
         "location": "https://f002.backblazeb2.com/file/ayoon-public-files/i_have_heard_a_wonderful_thing.pdf"}
      ]
    },
    {
      "title": "systemf",
      "date": "december 2016",
      "links": [
	{"name": "code",
	 "location": "https://github.com/ajyoon/systemf"}
      ],
      "description": "a brainfuck interpreter supporting linux syscalls"
    },
    {
      "title": "we accidentally imagine",
      "date": "august 2016",
      "links": [
	{"name": "read online",
	 "location": "http://weaccidentallyimagine.com"},
	{"name": "code",
	 "location": "https://github.com/ajyoon/weaccidentallyimagine"},
	{"name": "write-up",
	 "location": "https://andrewyoon.net/2016/11/17/poems-that-change.html"}
      ],
      "description": "a book of mutable poetry"
    },
    {
      "title": "an electroacoustic installation",
      "date": "may 2016",
      "links": [
	{"name": "recording",
	 "location": "https://www.youtube.com/watch?v=vBFPbpDtKeI"},
	{"name": "code",
	 "location": "https://github.com/ajyoon/yoon-toren-installation"}
      ],
      "description": "an electroacoustic installation made in collaboration with cat toren utilizing algorithmically built poetry and autonomous sine wave generation"
    },
    {
      "title": "how the air just sort of moves around",
      "duration": "8’28”",
      "date": "april 2016",
      "links": [
	{"name": "recording",
	 "location": "https://www.youtube.com/watch?v=CDWMDwZNMCE"}
      ],
      "description": "for live electronics and speaker, premiered and recorded april 17, 2016"
    },
    {
      "title": "we figure out who we are and we aren't quite anywhere",
      "duration": "56’55”",
      "date": "april 2016",
      "links": [
	{"name": "recording",
	 "location": "https://www.youtube.com/watch?v=AvbwPKz8YhY"}
      ],
      "description": "a partly improvised music-poem for piano and three speakers"
    },
    {
      "title": "the second hand somehow different this time around",
      "duration": "ca. 10’",
      "date": "march 2016",
      "links": [
	{"name": "recording",
	 "location": "https://www.youtube.com/watch?v=0ky-k3cclWM"},
	{"name": "score sample",
	 "location": "https://f002.backblazeb2.com/file/ayoon-public-files/the_second_hand_excerpt.pdf"}
      ],
      "description": "for orchestra, speakers, and live electronics. created using algorithmically generated texts and musical materials"
    },
    {
      "title": "here, the leafsighaway",
      "duration": "20’ to any duration",
      "date": "november 2015",
      "links": [
	{"name": "recording",
	 "location": "https://www.youtube.com/watch?v=Ag-gPrtWQHo"},
	{"name": "example score",
	 "location": "https://f002.backblazeb2.com/file/ayoon-public-files/here_the_leafsighaway_excerpt.pdf"},
	{"name": "code",
	 "location": "https://github.com/ajyoon/here_the_leafsighaway"}
      ],
      "description": "a happening for large ensemble and audience reading to themselves built using algorithmic stochastic processes"
    },
    {
      "title": "twenty two pages for string quartet",
      "duration": "ca. 22’",
      "date": "may 2015",
      "links": [
	{"name": "recording",
	 "location": "https://youtu.be/KJhil6Ywor8"},
	{"name": "score",
	 "location": "https://f002.backblazeb2.com/file/ayoon-public-files/twenty_two_pages.pdf"}
      ]
    },
    {
      "title": "ten pages for soprano, harp, and cello",
      "duration": "ca. 9’",
      "date": "may 2015",
      "links": [
	{"name": "score",
	 "location": "https://f002.backblazeb2.com/file/ayoon-public-files/ten_pages.pdf"},
	{"name": "recording",
	 "location": "https://www.youtube.com/watch?v=RzJnlAH9fec"}
      ],
      "description": "commissioned by one quiet plunge for a program on the theme of spiritual ecology. it was premiered in may 2015 by soprano lucy dhegrae, harpist caroline cole, and cellist nicholas finch"
    },
    {
      "title": "contemplation on a chord",
      "duration": "ca. 75’",
      "date": "march 2015",
      "links": [
	{"name": "recording",
	 "location": "https://www.youtube.com/watch?v=WUGgAYncLL8"},
	{"name": "full score",
	 "location": "https://f002.backblazeb2.com/file/ayoon-public-files/contemplation_on_a_chord.pdf"},
	{"name": "parts",
	 "location": "https://f002.backblazeb2.com/file/ayoon-public-files/contemplation_on_a_chord_parts.zip"}
      ],
      "description": "for string orchestra with individual parts"
    },
    {
      "title": "four ostinato pieces for piano",
      "duration": "ca. 30’",
      "date": "august 2014",
      "links": [
	{"name": "recording",
	 "location": "https://www.youtube.com/watch?v=Ro8Zz8RRiDc"},
	{"name": "full score",
	 "location": "https://f002.backblazeb2.com/file/ayoon-public-files/four_ostinato_pieces.pdf"},
      ]
    },
    {
      "title": "music for two violas, two basses, and yoga class",
      "duration": "any duration",
      "date": "november 2014",
      "links": [
	{"name": "recording",
	 "location": "https://f002.backblazeb2.com/file/ayoon-public-files/yoga_music.mp3"},
	{"name": "score",
	 "location": "https://f002.backblazeb2.com/file/ayoon-public-files/yoga_music.pdf"}
      ],
      "description": "a guided improvisation designed for a quartet to play alongside a yoga class, improvising in response to the character and intensity of the class as it unfolds. written for a class led by ayaka kamei at the purchase college wellness fair on november 4th, 2014"
    },
    {
      "title": "duo for violin and cello",
      "duration": "ca. 9’",
      "date": "may 2014",
      "links": [
	{"name": "recording",
	 "location": "https://f002.backblazeb2.com/file/ayoon-public-files/duo_for_violin_and_cello.mp3"},
	{"name": "score",
	 "location": "https://f002.backblazeb2.com/file/ayoon-public-files/duo_for_violin_and_cello.pdf"},
      ],
      "description": "written for the 2014 cortona sessions for new music"
    },
    {
      "title": "breathing song",
      "duration": "ca. 11’",
      "date": "april 2014",
      "links": [
	{"name": "recording",
	 "location": "https://f002.backblazeb2.com/file/ayoon-public-files/breathing_song.mp3"},
	{"name": "score",
	 "location": "https://f002.backblazeb2.com/file/ayoon-public-files/breathing_song.pdf"},
      ],
      "description": "for soprano trio"
    },
    {
      "title": "warmth",
      "duration": "ca. 7’",
      "date": "march 2014",
      "links": [
	{"name": "recording",
	 "location": "https://f002.backblazeb2.com/file/ayoon-public-files/warmth.mp3"},
        {"name": "score",
         "location": "https://f002.backblazeb2.com/file/ayoon-public-files/Warmth.pdf"}
      ],
      "description": "for vibraphone, electric guitar, and two basses. written for the purchase new music ensemble"
    },
    {
      "title": "five reflections",
      "duration": "ca. 27’",
      "date": "january 2014",
      "links": [
        {"name": "recording - the truth", 
         "location": "https://f002.backblazeb2.com/file/ayoon-public-files/five_reflections/the_truth.mp3"},
        {"name": "recording - the fountain", 
         "location": "https://f002.backblazeb2.com/file/ayoon-public-files/five_reflections/the_fountain.mp3"},
        {"name": "recording - music", 
         "location": "https://f002.backblazeb2.com/file/ayoon-public-files/five_reflections/music.mp3"},
        {"name": "recording - recurse", 
         "location": "https://f002.backblazeb2.com/file/ayoon-public-files/five_reflections/recurse.mp3"},
        {"name": "recording - the wound", 
         "location": "https://f002.backblazeb2.com/file/ayoon-public-files/five_reflections/the_wound.mp3"},
	{"name": "score and parts",
	 "location": "https://f002.backblazeb2.com/file/ayoon-public-files/five_reflections/score_and_parts.pdf"}
      ],
      "description": "for mixed choir, 3 cellos, and piano. five songs set to poems by emily dickinson, sara teasdale, ralph waldo emerson, david an, and thomas hardy"
    },
    {
      "title": "growth",
      "duration": "ca. 12’",
      "date": "november 2013",
      "links": [
	{"name": "recording",
	 "location": "https://f002.backblazeb2.com/file/ayoon-public-files/growth.mp3"},
	{"name": "score",
	 "location": "https://f002.backblazeb2.com/file/ayoon-public-files/growth.pdf"},
      ],
      "description": "for violin, viola, cello, and bass. written for the purchase new music ensemble"
    },
    {
      "title": "duo for flute and cello",
      "duration": "ca. 12’",
      "date": "april 2013",
      "links": [
	{"name": "recording",
	 "location": "https://f002.backblazeb2.com/file/ayoon-public-files/duo_for_flute_and_cello.mp3"},
	{"name": "score",
	 "location": "https://f002.backblazeb2.com/file/ayoon-public-files/duo_for_flute_and_cello.pdf"},
      ],
      "description": "for flute and cello. written for the purchase new music ensemble"
    },
    {
      "title": "piece for piano and guitar",
      "duration": "ca. 9’",
      "date": "october 2012",
      "links": [
	{"name": "recording",
	 "location": "https://f002.backblazeb2.com/file/ayoon-public-files/piece_for_piano_and_guitar.mp3"},
	{"name": "score",
	 "location": "https://f002.backblazeb2.com/file/ayoon-public-files/piece_for_piano_and_guitar.pdf"}
      ],
      "description": "written for the purchase new music ensemble"
    }
  ]
}
