<?xml version="1.0" encoding="UTF-8" standalone="no"?>
<svg
   xmlns:dc="http://purl.org/dc/elements/1.1/"
   xmlns:cc="http://creativecommons.org/ns#"
   xmlns:rdf="http://www.w3.org/1999/02/22-rdf-syntax-ns#"
   xmlns:svg="http://www.w3.org/2000/svg"
   xmlns="http://www.w3.org/2000/svg"
   xmlns:sodipodi="http://sodipodi.sourceforge.net/DTD/sodipodi-0.dtd"
   xmlns:inkscape="http://www.inkscape.org/namespaces/inkscape"
   height="174.00227"
   width="215.25807"
   id="svg5155"
   version="1.1"
   preserveAspectRatio="xMidYMid meet"
   viewBox="0 0 215.25807 174.00227"
   inkscape:version="0.91 r13725"
   sodipodi:docname="poems-that-change-small-markov.svg">
  <sodipodi:namedview
     pagecolor="#ffffff"
     bordercolor="#666666"
     borderopacity="1"
     objecttolerance="10"
     gridtolerance="10"
     guidetolerance="10"
     inkscape:pageopacity="0"
     inkscape:pageshadow="2"
     inkscape:window-width="1920"
     inkscape:window-height="1056"
     id="namedview5364"
     showgrid="false"
     inkscape:zoom="1.9181037"
     inkscape:cx="78.84537"
     inkscape:cy="48.198999"
     inkscape:window-x="0"
     inkscape:window-y="24"
     inkscape:window-maximized="1"
     inkscape:current-layer="svg5155"
     fit-margin-top="0"
     fit-margin-left="0"
     fit-margin-right="0"
     fit-margin-bottom="0" />
  <metadata
     id="metadata5196">
    <rdf:RDF>
      <cc:Work
         rdf:about="">
        <dc:format>image/svg+xml</dc:format>
        <dc:type
           rdf:resource="http://purl.org/dc/dcmitype/StillImage" />
        <dc:title></dc:title>
      </cc:Work>
    </rdf:RDF>
  </metadata>
  <line
     style="stroke:#cccccc;marker-end:url(#arrowhead)"
     y2="15"
     x2="132.63226"
     y1="159.00227"
     x1="174.13547"
     id="edge1" />
  <line
     id="line5463"
     x1="28.630003"
     y1="122.90428"
     x2="132.63226"
     y2="15"
     style="stroke:#cccccc;marker-end:url(#arrowhead)" />
  <line
     style="stroke:#cccccc;marker-end:url(#arrowhead)"
     y2="159.00227"
     x2="174.13547"
     y1="122.90428"
     x1="28.630003"
     id="edge2" />
  <line
     id="line5480"
     x1="139.93114"
     y1="14.217978"
     x2="181.43434"
     y2="158.22025"
     style="stroke:#cccccc;marker-end:url(#arrowhead)" />
  <line
     style="stroke:#cccccc;marker-end:url(#arrowhead)"
     y2="119.25484"
     x2="23.416521"
     y1="11.350562"
     x1="127.41878"
     id="edge3" />
  <circle
     id="circle5161"
     style="fill:#282f6b;fill-opacity:1"
     cy="159.00227"
     cx="174.13547"
     r="15" />
  <circle
     id="circle5163"
     style="fill:#e099cf;fill-opacity:1"
     cy="122.90428"
     cx="28.630003"
     r="15" />
  <circle
     id="circle5165"
     style="fill:#b22200;fill-opacity:1"
     cy="15"
     cx="132.63226"
     r="15" />
  <text
     id="text5167"
     style="font-style:normal;font-variant:normal;font-weight:bold;font-stretch:normal;font-size:12.00000048px;line-height:125%;font-family:Roboto;-inkscape-font-specification:'Roboto, Bold';text-align:start;writing-mode:lr;text-anchor:start;white-space:nowrap;display:block;fill:#3d3d3d;fill-opacity:1;"
     class="nodelabel"
     y="163.79286"
     x="191.74248"
     sodipodi:linespacing="125%">that</text>
  <text
     id="text5169"
     style="font-style:normal;font-variant:normal;font-weight:bold;font-stretch:normal;font-size:12.00000048px;line-height:125%;font-family:Roboto;-inkscape-font-specification:'Roboto, Bold';text-align:start;writing-mode:lr;text-anchor:start;white-space:nowrap;display:block;fill:#3d3d3d;fill-opacity:1;"
     class="nodelabel"
     y="127.70438"
     x="2.491668"
     sodipodi:linespacing="125%">is</text>
  <text
     id="text5171"
     style="font-style:normal;font-variant:normal;font-weight:bold;font-stretch:normal;font-size:12.00000048px;line-height:125%;font-family:Roboto;-inkscape-font-specification:'Roboto, Bold';text-align:start;writing-mode:lr;text-anchor:start;white-space:nowrap;display:block;fill:#3d3d3d;fill-opacity:1;"
     class="nodelabel"
     y="16.340422"
     x="149.37865"
     sodipodi:linespacing="125%">poetry</text>
  <path
     style="fill:#0000ff;fill-opacity:0;stroke:#ff0000;stroke-opacity:0"
     id="edgepath0"
     class="edgepath"
     d="M 174.13545,159.00227 28.630001,122.90428"
     inkscape:connector-curvature="0" />
  <path
     style="fill:#0000ff;fill-opacity:0;stroke:#ff0000;stroke-opacity:0"
     id="edgepath1"
     class="edgepath"
     d="M 174.13545,159.00227 132.63225,15"
     inkscape:connector-curvature="0" />
  <path
     style="fill:#0000ff;fill-opacity:0;stroke:#ff0000;stroke-opacity:0"
     id="edgepath2"
     class="edgepath"
     d="M 28.630001,122.90428 174.13545,159.00227"
     inkscape:connector-curvature="0" />
  <path
     style="fill:#0000ff;fill-opacity:0;stroke:#ff0000;stroke-opacity:0"
     id="edgepath3"
     class="edgepath"
     d="M 132.63225,15 28.630001,122.90428"
     inkscape:connector-curvature="0" />
  <defs
     id="defs5189">
    <marker
       xoverflow="visible"
       markerHeight="10"
       markerWidth="10"
       orient="auto"
       refY="0"
       refX="25"
       viewBox="-0 -5 10 10"
       id="arrowhead">
      <path
         id="path5192"
         style="fill:#cccccc;stroke:#cccccc"
         d="M 0,-5 10,0 0,5"
         inkscape:connector-curvature="0" />
    </marker>
  </defs>
  <text
     id="text5167-3-7"
     style="font-style:normal;font-variant:normal;font-weight:normal;font-stretch:normal;font-size:12.00000095px;line-height:125%;font-family:Roboto;-inkscape-font-specification:'Roboto, Normal';text-align:start;writing-mode:lr-tb;text-anchor:start;white-space:nowrap;display:block;fill:#3d3d3d;fill-opacity:1"
     class="nodelabel"
     y="63.152481"
     x="56.07349"
     sodipodi:linespacing="125%">0.5</text>
  <text
     id="text5167-3-0"
     style="font-style:normal;font-variant:normal;font-weight:normal;font-stretch:normal;font-size:12.00000095px;line-height:125%;font-family:Roboto;-inkscape-font-specification:'Roboto, Normal';text-align:start;writing-mode:lr-tb;text-anchor:start;white-space:nowrap;display:block;fill:#3d3d3d;fill-opacity:1"
     class="nodelabel"
     y="76.70752"
     x="85.790344"
     sodipodi:linespacing="125%">0.6</text>
  <text
     id="text5167-3-4"
     style="font-style:normal;font-variant:normal;font-weight:normal;font-stretch:normal;font-size:12.00000095px;line-height:125%;font-family:Roboto;-inkscape-font-specification:'Roboto, Normal';text-align:start;writing-mode:lr-tb;text-anchor:start;white-space:nowrap;display:block;fill:#3d3d3d;fill-opacity:1"
     class="nodelabel"
     y="154.90976"
     x="88.397079"
     sodipodi:linespacing="125%">0.4</text>
  <text
     id="text5167-3-7-9"
     style="font-style:normal;font-variant:normal;font-weight:normal;font-stretch:normal;font-size:12.00000095px;line-height:125%;font-family:Roboto;-inkscape-font-specification:'Roboto, Normal';text-align:start;writing-mode:lr-tb;text-anchor:start;white-space:nowrap;display:block;fill:#3d3d3d;fill-opacity:1"
     class="nodelabel"
     y="95.997414"
     x="130.85475"
     sodipodi:linespacing="125%">1.0</text>
  <text
     id="text5167-3-7-2"
     style="font-style:normal;font-variant:normal;font-weight:normal;font-stretch:normal;font-size:12.00000095px;line-height:125%;font-family:Roboto;-inkscape-font-specification:'Roboto, Normal';text-align:start;writing-mode:lr-tb;text-anchor:start;white-space:nowrap;display:block;fill:#3d3d3d;fill-opacity:1"
     class="nodelabel"
     y="88.69854"
     x="164.26498"
     sodipodi:linespacing="125%">0.5</text>
</svg>
