<?xml version="1.0" encoding="UTF-8" standalone="no"?>
<svg
   xmlns:dc="http://purl.org/dc/elements/1.1/"
   xmlns:cc="http://creativecommons.org/ns#"
   xmlns:rdf="http://www.w3.org/1999/02/22-rdf-syntax-ns#"
   xmlns:svg="http://www.w3.org/2000/svg"
   xmlns="http://www.w3.org/2000/svg"
   viewBox="0 0 1050 1050.0001"
   preserveAspectRatio="xMidYMid meet"
   version="1.1"
   id="svg2">
  <metadata
     id="metadata611">
    <rdf:RDF>
      <cc:Work
         rdf:about="">
        <dc:format>image/svg+xml</dc:format>
        <dc:type
           rdf:resource="http://purl.org/dc/dcmitype/StillImage" />
        <dc:title></dc:title>
      </cc:Work>
    </rdf:RDF>
  </metadata>
  <g
     id="g4"
     stroke="#ccc">
    <line
       x1="464.28"
       y1="812.5"
       x2="537.05"
       marker-end="url(#arrowhead)"
       y2="572.43"
       id="edge0" />
    <line
       x1="464.28"
       y1="812.5"
       x2="354"
       marker-end="url(#arrowhead)"
       y2="581.8"
       id="edge1" />
    <line
       x1="464.28"
       y1="812.5"
       x2="250.69"
       marker-end="url(#arrowhead)"
       y2="499.71"
       id="edge2" />
    <line
       x1="464.28"
       y1="812.5"
       x2="556.71"
       marker-end="url(#arrowhead)"
       y2="476.67"
       id="edge3" />
    <line
       x1="507.08"
       y1="521.78"
       x2="670.71"
       marker-end="url(#arrowhead)"
       y2="298.04"
       id="edge4" />
    <line
       x1="507.08"
       y1="521.78"
       x2="306.78"
       marker-end="url(#arrowhead)"
       y2="310.85"
       id="edge5" />
    <line
       x1="296.6"
       y1="552.32"
       x2="465.41"
       marker-end="url(#arrowhead)"
       y2="222.45"
       id="edge6" />
    <line
       x1="296.6"
       y1="552.32"
       x2="296.6"
       marker-end="url(#arrowhead)"
       y2="552.32"
       id="edge7" />
    <line
       x1="296.6"
       y1="552.32"
       x2="477.65"
       marker-end="url(#arrowhead)"
       y2="268.32"
       id="edge8" />
    <line
       x1="296.6"
       y1="552.32"
       x2="478.55"
       marker-end="url(#arrowhead)"
       y2="314.43"
       id="edge9" />
    <line
       x1="296.6"
       y1="552.32"
       x2="464.28"
       marker-end="url(#arrowhead)"
       y2="812.5"
       id="edge10" />
    <line
       x1="603.32"
       y1="630.26"
       x2="897.54"
       marker-end="url(#arrowhead)"
       y2="636.43"
       id="edge11" />
    <line
       x1="603.32"
       y1="630.26"
       x2="764.43"
       marker-end="url(#arrowhead)"
       y2="298.36"
       id="edge12" />
    <line
       x1="258.99"
       y1="560.58"
       x2="537.05"
       marker-end="url(#arrowhead)"
       y2="572.43"
       id="edge13" />
    <line
       x1="258.99"
       y1="560.58"
       x2="464.28"
       marker-end="url(#arrowhead)"
       y2="812.5"
       id="edge14" />
    <line
       x1="578.52"
       y1="916.93"
       x2="668.77"
       marker-end="url(#arrowhead)"
       y2="665.67"
       id="edge15" />
    <line
       x1="578.52"
       y1="916.93"
       x2="604.38"
       marker-end="url(#arrowhead)"
       y2="675.69"
       id="edge16" />
    <line
       x1="578.52"
       y1="916.93"
       x2="386.57"
       marker-end="url(#arrowhead)"
       y2="760.55"
       id="edge17" />
    <line
       x1="578.52"
       y1="916.93"
       x2="331.16"
       marker-end="url(#arrowhead)"
       y2="724.82"
       id="edge18" />
    <line
       x1="574.4"
       y1="553.49"
       x2="258.99"
       marker-end="url(#arrowhead)"
       y2="560.58"
       id="edge19" />
    <line
       x1="574.4"
       y1="553.49"
       x2="337.01"
       marker-end="url(#arrowhead)"
       y2="391.96"
       id="edge20" />
    <line
       x1="897.54"
       y1="636.43"
       x2="613.98"
       marker-end="url(#arrowhead)"
       y2="458.16"
       id="edge21" />
    <line
       x1="897.54"
       y1="636.43"
       x2="574.4"
       marker-end="url(#arrowhead)"
       y2="553.49"
       id="edge22" />
    <line
       x1="337.01"
       y1="391.96"
       x2="537.05"
       marker-end="url(#arrowhead)"
       y2="572.43"
       id="edge23" />
    <line
       x1="337.01"
       y1="391.96"
       x2="443.67"
       marker-end="url(#arrowhead)"
       y2="202.11"
       id="edge24" />
    <line
       x1="337.01"
       y1="391.96"
       x2="576.39"
       marker-end="url(#arrowhead)"
       y2="586.56"
       id="edge25" />
    <line
       x1="337.01"
       y1="391.96"
       x2="603.32"
       marker-end="url(#arrowhead)"
       y2="630.26"
       id="edge26" />
    <line
       x1="337.01"
       y1="391.96"
       x2="331.16"
       marker-end="url(#arrowhead)"
       y2="724.82"
       id="edge27" />
    <line
       x1="564.21"
       y1="221.51"
       x2="814.23"
       marker-end="url(#arrowhead)"
       y2="213.9"
       id="edge28" />
    <line
       x1="564.21"
       y1="221.51"
       x2="576.39"
       marker-end="url(#arrowhead)"
       y2="586.56"
       id="edge29" />
    <line
       x1="604.38"
       y1="675.69"
       x2="296.6"
       marker-end="url(#arrowhead)"
       y2="552.32"
       id="edge30" />
    <line
       x1="604.38"
       y1="675.69"
       x2="897.54"
       marker-end="url(#arrowhead)"
       y2="636.43"
       id="edge31" />
    <line
       x1="618.88"
       y1="361.16"
       x2="360.64"
       marker-end="url(#arrowhead)"
       y2="410.87"
       id="edge32" />
    <line
       x1="618.88"
       y1="361.16"
       x2="306.78"
       marker-end="url(#arrowhead)"
       y2="310.85"
       id="edge33" />
    <line
       x1="814.23"
       y1="213.9"
       x2="627.05"
       marker-end="url(#arrowhead)"
       y2="535.5"
       id="edge34" />
    <line
       x1="814.23"
       y1="213.9"
       x2="814.23"
       marker-end="url(#arrowhead)"
       y2="213.9"
       id="edge35" />
    <line
       x1="814.23"
       y1="213.9"
       x2="477.65"
       marker-end="url(#arrowhead)"
       y2="268.32"
       id="edge36" />
    <line
       x1="670.71"
       y1="298.04"
       x2="276.01"
       marker-end="url(#arrowhead)"
       y2="416.62"
       id="edge37" />
    <line
       x1="670.71"
       y1="298.04"
       x2="537.05"
       marker-end="url(#arrowhead)"
       y2="572.43"
       id="edge38" />
    <line
       x1="937.79"
       y1="556.01"
       x2="759.22"
       marker-end="url(#arrowhead)"
       y2="320.76"
       id="edge39" />
    <line
       x1="937.79"
       y1="556.01"
       x2="1010.9"
       marker-end="url(#arrowhead)"
       y2="760.12"
       id="edge40" />
    <line
       x1="467.48"
       y1="514.28"
       x2="706.71"
       marker-end="url(#arrowhead)"
       y2="319.48"
       id="edge41" />
    <line
       x1="467.48"
       y1="514.28"
       x2="669.5"
       marker-end="url(#arrowhead)"
       y2="278.08"
       id="edge42" />
    <line
       x1="396.04"
       y1="272.91"
       x2="185.19"
       marker-end="url(#arrowhead)"
       y2="509.41"
       id="edge43" />
    <line
       x1="396.04"
       y1="272.91"
       x2="627.05"
       marker-end="url(#arrowhead)"
       y2="535.5"
       id="edge44" />
    <line
       x1="290.16"
       y1="805.12"
       x2="576.39"
       marker-end="url(#arrowhead)"
       y2="586.56"
       id="edge45" />
    <line
       x1="290.16"
       y1="805.12"
       x2="578.52"
       marker-end="url(#arrowhead)"
       y2="916.93"
       id="edge46" />
    <line
       x1="764.43"
       y1="298.36"
       x2="574.4"
       marker-end="url(#arrowhead)"
       y2="553.49"
       id="edge47" />
    <line
       x1="764.43"
       y1="298.36"
       x2="576.39"
       marker-end="url(#arrowhead)"
       y2="586.56"
       id="edge48" />
    <line
       x1="386.57"
       y1="760.55"
       x2="762.66"
       marker-end="url(#arrowhead)"
       y2="702.75"
       id="edge49" />
    <line
       x1="386.57"
       y1="760.55"
       x2="426.72"
       marker-end="url(#arrowhead)"
       y2="1034"
       id="edge50" />
    <line
       x1="283.82"
       y1="279.2"
       x2="296.6"
       marker-end="url(#arrowhead)"
       y2="552.32"
       id="edge51" />
    <line
       x1="283.82"
       y1="279.2"
       x2="96.831"
       marker-end="url(#arrowhead)"
       y2="525.88"
       id="edge52" />
    <line
       x1="645.66"
       y1="256.15"
       x2="283.82"
       marker-end="url(#arrowhead)"
       y2="279.2"
       id="edge53" />
    <line
       x1="645.66"
       y1="256.15"
       x2="504.75"
       marker-end="url(#arrowhead)"
       y2="53.017"
       id="edge54" />
    <line
       x1="953.53"
       y1="461.04"
       x2="669.5"
       marker-end="url(#arrowhead)"
       y2="278.08"
       id="edge55" />
    <line
       x1="953.53"
       y1="461.04"
       x2="1010.9"
       marker-end="url(#arrowhead)"
       y2="760.12"
       id="edge56" />
    <line
       x1="669.5"
       y1="278.08"
       x2="360.64"
       marker-end="url(#arrowhead)"
       y2="410.87"
       id="edge57" />
    <line
       x1="669.5"
       y1="278.08"
       x2="679.67"
       marker-end="url(#arrowhead)"
       y2="611.96"
       id="edge58" />
    <line
       x1="354"
       y1="581.8"
       x2="425.18"
       marker-end="url(#arrowhead)"
       y2="319.9"
       id="edge59" />
    <line
       x1="354"
       y1="581.8"
       x2="290.16"
       marker-end="url(#arrowhead)"
       y2="805.12"
       id="edge60" />
    <line
       x1="450.68"
       y1="80.105"
       x2="618.88"
       marker-end="url(#arrowhead)"
       y2="361.16"
       id="edge61" />
    <line
       x1="450.68"
       y1="80.105"
       x2="759.22"
       marker-end="url(#arrowhead)"
       y2="320.76"
       id="edge62" />
    <line
       x1="258.73"
       y1="701.14"
       x2="360.64"
       marker-end="url(#arrowhead)"
       y2="410.87"
       id="edge63" />
    <line
       x1="258.73"
       y1="701.14"
       x2="576.39"
       marker-end="url(#arrowhead)"
       y2="586.56"
       id="edge64" />
    <line
       x1="477.56"
       y1="925.78"
       x2="576.39"
       marker-end="url(#arrowhead)"
       y2="586.56"
       id="edge65" />
    <line
       x1="477.56"
       y1="925.78"
       x2="716.81"
       marker-end="url(#arrowhead)"
       y2="744.61"
       id="edge66" />
    <line
       x1="706.71"
       y1="319.48"
       x2="504.75"
       marker-end="url(#arrowhead)"
       y2="53.017"
       id="edge67" />
    <line
       x1="706.71"
       y1="319.48"
       x2="474"
       marker-end="url(#arrowhead)"
       y2="453.41"
       id="edge68" />
    <line
       x1="313.33"
       y1="274.27"
       x2="25"
       marker-end="url(#arrowhead)"
       y2="331.49"
       id="edge69" />
    <line
       x1="313.33"
       y1="274.27"
       x2="618.88"
       marker-end="url(#arrowhead)"
       y2="361.16"
       id="edge70" />
    <line
       x1="313.33"
       y1="274.27"
       x2="467.48"
       marker-end="url(#arrowhead)"
       y2="514.28"
       id="edge71" />
    <line
       x1="25"
       y1="331.49"
       x2="296.6"
       marker-end="url(#arrowhead)"
       y2="552.32"
       id="edge72" />
    <line
       x1="25"
       y1="331.49"
       x2="360.64"
       marker-end="url(#arrowhead)"
       y2="410.87"
       id="edge73" />
    <line
       x1="425.18"
       y1="319.9"
       x2="576.39"
       marker-end="url(#arrowhead)"
       y2="586.56"
       id="edge74" />
    <line
       x1="425.18"
       y1="319.9"
       x2="185.19"
       marker-end="url(#arrowhead)"
       y2="509.41"
       id="edge75" />
    <line
       x1="306.78"
       y1="310.85"
       x2="537.05"
       marker-end="url(#arrowhead)"
       y2="572.43"
       id="edge76" />
    <line
       x1="306.78"
       y1="310.85"
       x2="449.26"
       marker-end="url(#arrowhead)"
       y2="541.26"
       id="edge77" />
    <line
       x1="537.05"
       y1="572.43"
       x2="477.65"
       marker-end="url(#arrowhead)"
       y2="268.32"
       id="edge78" />
    <line
       x1="537.05"
       y1="572.43"
       x2="313.33"
       marker-end="url(#arrowhead)"
       y2="274.27"
       id="edge79" />
    <line
       x1="537.05"
       y1="572.43"
       x2="773.7"
       marker-end="url(#arrowhead)"
       y2="427.16"
       id="edge80" />
    <line
       x1="537.05"
       y1="572.43"
       x2="425.18"
       marker-end="url(#arrowhead)"
       y2="319.9"
       id="edge81" />
    <line
       x1="537.05"
       y1="572.43"
       x2="578.52"
       marker-end="url(#arrowhead)"
       y2="916.93"
       id="edge82" />
    <line
       x1="537.05"
       y1="572.43"
       x2="250.69"
       marker-end="url(#arrowhead)"
       y2="499.71"
       id="edge83" />
    <line
       x1="537.05"
       y1="572.43"
       x2="283.82"
       marker-end="url(#arrowhead)"
       y2="279.2"
       id="edge84" />
    <line
       x1="465.41"
       y1="222.45"
       x2="764.43"
       marker-end="url(#arrowhead)"
       y2="298.36"
       id="edge85" />
    <line
       x1="465.41"
       y1="222.45"
       x2="814.23"
       marker-end="url(#arrowhead)"
       y2="213.9"
       id="edge86" />
    <line
       x1="556.71"
       y1="476.67"
       x2="386.57"
       marker-end="url(#arrowhead)"
       y2="760.55"
       id="edge87" />
    <line
       x1="556.71"
       y1="476.67"
       x2="296.6"
       marker-end="url(#arrowhead)"
       y2="552.32"
       id="edge88" />
    <line
       x1="759.22"
       y1="320.76"
       x2="474"
       marker-end="url(#arrowhead)"
       y2="453.41"
       id="edge89" />
    <line
       x1="759.22"
       y1="320.76"
       x2="537.05"
       marker-end="url(#arrowhead)"
       y2="572.43"
       id="edge90" />
    <line
       x1="426.72"
       y1="1034"
       x2="723.49"
       marker-end="url(#arrowhead)"
       y2="960.29"
       id="edge91" />
    <line
       x1="426.72"
       y1="1034"
       x2="331.16"
       marker-end="url(#arrowhead)"
       y2="724.82"
       id="edge92" />
    <line
       x1="668.77"
       y1="665.67"
       x2="1010.9"
       marker-end="url(#arrowhead)"
       y2="760.12"
       id="edge93" />
    <line
       x1="668.77"
       y1="665.67"
       x2="296.6"
       marker-end="url(#arrowhead)"
       y2="552.32"
       id="edge94" />
    <line
       x1="331.16"
       y1="724.82"
       x2="507.08"
       marker-end="url(#arrowhead)"
       y2="521.78"
       id="edge95" />
    <line
       x1="331.16"
       y1="724.82"
       x2="576.39"
       marker-end="url(#arrowhead)"
       y2="586.56"
       id="edge96" />
    <line
       x1="331.16"
       y1="724.82"
       x2="627.05"
       marker-end="url(#arrowhead)"
       y2="535.5"
       id="edge97" />
    <line
       x1="331.16"
       y1="724.82"
       x2="337.01"
       marker-end="url(#arrowhead)"
       y2="391.96"
       id="edge98" />
    <line
       x1="443.67"
       y1="202.11"
       x2="296.6"
       marker-end="url(#arrowhead)"
       y2="552.32"
       id="edge99" />
    <line
       x1="443.67"
       y1="202.11"
       x2="645.66"
       marker-end="url(#arrowhead)"
       y2="256.15"
       id="edge100" />
    <line
       x1="716.81"
       y1="744.61"
       x2="953.53"
       marker-end="url(#arrowhead)"
       y2="461.04"
       id="edge101" />
    <line
       x1="716.81"
       y1="744.61"
       x2="354"
       marker-end="url(#arrowhead)"
       y2="581.8"
       id="edge102" />
    <line
       x1="185.19"
       y1="509.41"
       x2="576.39"
       marker-end="url(#arrowhead)"
       y2="586.56"
       id="edge103" />
    <line
       x1="185.19"
       y1="509.41"
       x2="360.64"
       marker-end="url(#arrowhead)"
       y2="410.87"
       id="edge104" />
    <line
       x1="185.19"
       y1="509.41"
       x2="574.4"
       marker-end="url(#arrowhead)"
       y2="553.49"
       id="edge105" />
    <line
       x1="185.19"
       y1="509.41"
       x2="331.16"
       marker-end="url(#arrowhead)"
       y2="724.82"
       id="edge106" />
    <line
       x1="841.67"
       y1="68.573"
       x2="645.66"
       marker-end="url(#arrowhead)"
       y2="256.15"
       id="edge107" />
    <line
       x1="841.67"
       y1="68.573"
       x2="706.71"
       marker-end="url(#arrowhead)"
       y2="319.48"
       id="edge108" />
    <line
       x1="276.01"
       y1="416.62"
       x2="47.82"
       marker-end="url(#arrowhead)"
       y2="235.06"
       id="edge109" />
    <line
       x1="276.01"
       y1="416.62"
       x2="477.65"
       marker-end="url(#arrowhead)"
       y2="268.32"
       id="edge110" />
    <line
       x1="613.98"
       y1="458.16"
       x2="831.08"
       marker-end="url(#arrowhead)"
       y2="650.67"
       id="edge111" />
    <line
       x1="613.98"
       y1="458.16"
       x2="258.99"
       marker-end="url(#arrowhead)"
       y2="560.58"
       id="edge112" />
    <line
       x1="250.69"
       y1="499.71"
       x2="469.65"
       marker-end="url(#arrowhead)"
       y2="663.19"
       id="edge113" />
    <line
       x1="250.69"
       y1="499.71"
       x2="386.57"
       marker-end="url(#arrowhead)"
       y2="760.55"
       id="edge114" />
    <line
       x1="469.65"
       y1="663.19"
       x2="290.16"
       marker-end="url(#arrowhead)"
       y2="805.12"
       id="edge115" />
    <line
       x1="469.65"
       y1="663.19"
       x2="762.66"
       marker-end="url(#arrowhead)"
       y2="702.75"
       id="edge116" />
    <line
       x1="474"
       y1="453.41"
       x2="798.29"
       marker-end="url(#arrowhead)"
       y2="379.64"
       id="edge117" />
    <line
       x1="474"
       y1="453.41"
       x2="331.16"
       marker-end="url(#arrowhead)"
       y2="724.82"
       id="edge118" />
    <line
       x1="584.79"
       y1="199.59"
       x2="556.71"
       marker-end="url(#arrowhead)"
       y2="476.67"
       id="edge119" />
    <line
       x1="584.79"
       y1="199.59"
       x2="337.01"
       marker-end="url(#arrowhead)"
       y2="391.96"
       id="edge120" />
    <line
       x1="679.67"
       y1="611.96"
       x2="331.16"
       marker-end="url(#arrowhead)"
       y2="724.82"
       id="edge121" />
    <line
       x1="679.67"
       y1="611.96"
       x2="425.18"
       marker-end="url(#arrowhead)"
       y2="319.9"
       id="edge122" />
    <line
       x1="762.66"
       y1="702.75"
       x2="578.52"
       marker-end="url(#arrowhead)"
       y2="916.93"
       id="edge123" />
    <line
       x1="762.66"
       y1="702.75"
       x2="723.49"
       marker-end="url(#arrowhead)"
       y2="960.29"
       id="edge124" />
    <line
       x1="449.26"
       y1="541.26"
       x2="313.33"
       marker-end="url(#arrowhead)"
       y2="274.27"
       id="edge125" />
    <line
       x1="449.26"
       y1="541.26"
       x2="773.7"
       marker-end="url(#arrowhead)"
       y2="427.16"
       id="edge126" />
    <line
       x1="748.93"
       y1="879.56"
       x2="477.56"
       marker-end="url(#arrowhead)"
       y2="925.78"
       id="edge127" />
    <line
       x1="748.93"
       y1="879.56"
       x2="831.08"
       marker-end="url(#arrowhead)"
       y2="650.67"
       id="edge128" />
    <line
       x1="1010.9"
       y1="760.12"
       x2="679.67"
       marker-end="url(#arrowhead)"
       y2="611.96"
       id="edge129" />
    <line
       x1="1010.9"
       y1="760.12"
       x2="748.93"
       marker-end="url(#arrowhead)"
       y2="879.56"
       id="edge130" />
    <line
       x1="47.82"
       y1="235.06"
       x2="360.64"
       marker-end="url(#arrowhead)"
       y2="410.87"
       id="edge131" />
    <line
       x1="47.82"
       y1="235.06"
       x2="96.831"
       marker-end="url(#arrowhead)"
       y2="525.88"
       id="edge132" />
    <line
       x1="477.65"
       y1="268.32"
       x2="96.831"
       marker-end="url(#arrowhead)"
       y2="525.88"
       id="edge133" />
    <line
       x1="477.65"
       y1="268.32"
       x2="841.67"
       marker-end="url(#arrowhead)"
       y2="68.573"
       id="edge134" />
    <line
       x1="576.39"
       y1="586.56"
       x2="443.67"
       marker-end="url(#arrowhead)"
       y2="202.11"
       id="edge135" />
    <line
       x1="576.39"
       y1="586.56"
       x2="670.71"
       marker-end="url(#arrowhead)"
       y2="298.04"
       id="edge136" />
    <line
       x1="576.39"
       y1="586.56"
       x2="759.22"
       marker-end="url(#arrowhead)"
       y2="320.76"
       id="edge137" />
    <line
       x1="576.39"
       y1="586.56"
       x2="937.79"
       marker-end="url(#arrowhead)"
       y2="556.01"
       id="edge138" />
    <line
       x1="576.39"
       y1="586.56"
       x2="748.93"
       marker-end="url(#arrowhead)"
       y2="879.56"
       id="edge139" />
    <line
       x1="576.39"
       y1="586.56"
       x2="831.08"
       marker-end="url(#arrowhead)"
       y2="650.67"
       id="edge140" />
    <line
       x1="576.39"
       y1="586.56"
       x2="897.54"
       marker-end="url(#arrowhead)"
       y2="636.43"
       id="edge141" />
    <line
       x1="576.39"
       y1="586.56"
       x2="337.01"
       marker-end="url(#arrowhead)"
       y2="391.96"
       id="edge142" />
    <line
       x1="576.39"
       y1="586.56"
       x2="584.79"
       marker-end="url(#arrowhead)"
       y2="199.59"
       id="edge143" />
    <line
       x1="478.55"
       y1="314.43"
       x2="354"
       marker-end="url(#arrowhead)"
       y2="581.8"
       id="edge144" />
    <line
       x1="478.55"
       y1="314.43"
       x2="469.65"
       marker-end="url(#arrowhead)"
       y2="663.19"
       id="edge145" />
    <line
       x1="798.29"
       y1="379.64"
       x2="576.39"
       marker-end="url(#arrowhead)"
       y2="586.56"
       id="edge146" />
    <line
       x1="798.29"
       y1="379.64"
       x2="507.08"
       marker-end="url(#arrowhead)"
       y2="521.78"
       id="edge147" />
    <line
       x1="96.831"
       y1="525.88"
       x2="337.01"
       marker-end="url(#arrowhead)"
       y2="391.96"
       id="edge148" />
    <line
       x1="96.831"
       y1="525.88"
       x2="25"
       marker-end="url(#arrowhead)"
       y2="331.49"
       id="edge149" />
    <line
       x1="723.49"
       y1="960.29"
       x2="604.38"
       marker-end="url(#arrowhead)"
       y2="675.69"
       id="edge150" />
    <line
       x1="723.49"
       y1="960.29"
       x2="603.32"
       marker-end="url(#arrowhead)"
       y2="630.26"
       id="edge151" />
    <line
       x1="773.7"
       y1="427.16"
       x2="467.48"
       marker-end="url(#arrowhead)"
       y2="514.28"
       id="edge152" />
    <line
       x1="773.7"
       y1="427.16"
       x2="937.79"
       marker-end="url(#arrowhead)"
       y2="556.01"
       id="edge153" />
    <line
       x1="360.64"
       y1="410.87"
       x2="576.39"
       marker-end="url(#arrowhead)"
       y2="586.56"
       id="edge154" />
    <line
       x1="360.64"
       y1="410.87"
       x2="360.64"
       marker-end="url(#arrowhead)"
       y2="410.87"
       id="edge155" />
    <line
       x1="360.64"
       y1="410.87"
       x2="564.21"
       marker-end="url(#arrowhead)"
       y2="221.51"
       id="edge156" />
    <line
       x1="360.64"
       y1="410.87"
       x2="706.71"
       marker-end="url(#arrowhead)"
       y2="319.48"
       id="edge157" />
    <line
       x1="360.64"
       y1="410.87"
       x2="331.16"
       marker-end="url(#arrowhead)"
       y2="724.82"
       id="edge158" />
    <line
       x1="360.64"
       y1="410.87"
       x2="290.16"
       marker-end="url(#arrowhead)"
       y2="805.12"
       id="edge159" />
    <line
       x1="831.08"
       y1="650.67"
       x2="464.28"
       marker-end="url(#arrowhead)"
       y2="812.5"
       id="edge160" />
    <line
       x1="831.08"
       y1="650.67"
       x2="537.05"
       marker-end="url(#arrowhead)"
       y2="572.43"
       id="edge161" />
    <line
       x1="504.75"
       y1="53.017"
       x2="337.01"
       marker-end="url(#arrowhead)"
       y2="391.96"
       id="edge162" />
    <line
       x1="504.75"
       y1="53.017"
       x2="313.33"
       marker-end="url(#arrowhead)"
       y2="274.27"
       id="edge163" />
    <line
       x1="627.05"
       y1="535.5"
       x2="578.52"
       marker-end="url(#arrowhead)"
       y2="916.93"
       id="edge164" />
    <line
       x1="627.05"
       y1="535.5"
       x2="584.79"
       marker-end="url(#arrowhead)"
       y2="199.59"
       id="edge165" />
  </g>
  <circle
     fill="#1f77b4"
     r="15"
     cx="464.28"
     cy="812.5"
     id="circle170" />
  <circle
     fill="#aec7e8"
     r="15"
     cx="507.08"
     cy="521.78"
     id="circle172" />
  <circle
     fill="#ff7f0e"
     r="15"
     cx="296.6"
     cy="552.32"
     id="circle174" />
  <circle
     fill="#ffbb78"
     r="15"
     cx="603.32"
     cy="630.26"
     id="circle176" />
  <circle
     fill="#2ca02c"
     r="15"
     cx="258.99"
     cy="560.58"
     id="circle178" />
  <circle
     fill="#98df8a"
     r="15"
     cx="578.52"
     cy="916.93"
     id="circle180" />
  <circle
     fill="#d62728"
     r="15"
     cx="574.4"
     cy="553.49"
     id="circle182" />
  <circle
     fill="#ff9896"
     r="15"
     cx="897.54"
     cy="636.43"
     id="circle184" />
  <circle
     fill="#9467bd"
     r="15"
     cx="337.01"
     cy="391.96"
     id="circle186" />
  <circle
     fill="#c5b0d5"
     r="15"
     cx="564.21"
     cy="221.51"
     id="circle188" />
  <circle
     fill="#8c564b"
     r="15"
     cx="604.38"
     cy="675.69"
     id="circle190" />
  <circle
     fill="#c49c94"
     r="15"
     cx="618.88"
     cy="361.16"
     id="circle192" />
  <circle
     fill="#e377c2"
     r="15"
     cx="814.23"
     cy="213.9"
     id="circle194" />
  <circle
     fill="#f7b6d2"
     r="15"
     cx="670.71"
     cy="298.04"
     id="circle196" />
  <circle
     fill="#7f7f7f"
     r="15"
     cx="937.79"
     cy="556.01"
     id="circle198" />
  <circle
     fill="#c7c7c7"
     r="15"
     cx="467.48"
     cy="514.28"
     id="circle200" />
  <circle
     fill="#bcbd22"
     r="15"
     cx="396.04"
     cy="272.91"
     id="circle202" />
  <circle
     fill="#dbdb8d"
     r="15"
     cx="290.16"
     cy="805.12"
     id="circle204" />
  <circle
     fill="#17becf"
     r="15"
     cx="764.43"
     cy="298.36"
     id="circle206" />
  <circle
     fill="#9edae5"
     r="15"
     cx="386.57"
     cy="760.55"
     id="circle208" />
  <circle
     fill="#1f77b4"
     r="15"
     cx="283.82"
     cy="279.2"
     id="circle210" />
  <circle
     fill="#aec7e8"
     r="15"
     cx="645.66"
     cy="256.15"
     id="circle212" />
  <circle
     fill="#ff7f0e"
     r="15"
     cx="953.53"
     cy="461.04"
     id="circle214" />
  <circle
     fill="#ffbb78"
     r="15"
     cx="669.5"
     cy="278.08"
     id="circle216" />
  <circle
     fill="#2ca02c"
     r="15"
     cx="354"
     cy="581.8"
     id="circle218" />
  <circle
     fill="#98df8a"
     r="15"
     cx="450.68"
     cy="80.105"
     id="circle220" />
  <circle
     fill="#d62728"
     r="15"
     cx="258.73"
     cy="701.14"
     id="circle222" />
  <circle
     fill="#ff9896"
     r="15"
     cx="477.56"
     cy="925.78"
     id="circle224" />
  <circle
     fill="#9467bd"
     r="15"
     cx="706.71"
     cy="319.48"
     id="circle226" />
  <circle
     fill="#c5b0d5"
     r="15"
     cx="313.33"
     cy="274.27"
     id="circle228" />
  <circle
     fill="#8c564b"
     r="15"
     cx="25"
     cy="331.49"
     id="circle230" />
  <circle
     fill="#c49c94"
     r="15"
     cx="425.18"
     cy="319.9"
     id="circle232" />
  <circle
     fill="#e377c2"
     r="15"
     cx="306.78"
     cy="310.85"
     id="circle234" />
  <circle
     fill="#f7b6d2"
     r="15"
     cx="537.05"
     cy="572.43"
     id="circle236" />
  <circle
     fill="#7f7f7f"
     r="15"
     cx="465.41"
     cy="222.45"
     id="circle238" />
  <circle
     fill="#c7c7c7"
     r="15"
     cx="556.71"
     cy="476.67"
     id="circle240" />
  <circle
     fill="#bcbd22"
     r="15"
     cx="759.22"
     cy="320.76"
     id="circle242" />
  <circle
     fill="#dbdb8d"
     r="15"
     cx="426.72"
     cy="1034"
     id="circle244" />
  <circle
     fill="#17becf"
     r="15"
     cx="668.77"
     cy="665.67"
     id="circle246" />
  <circle
     fill="#9edae5"
     r="15"
     cx="331.16"
     cy="724.82"
     id="circle248" />
  <circle
     fill="#1f77b4"
     r="15"
     cx="443.67"
     cy="202.11"
     id="circle250" />
  <circle
     fill="#aec7e8"
     r="15"
     cx="716.81"
     cy="744.61"
     id="circle252" />
  <circle
     fill="#ff7f0e"
     r="15"
     cx="185.19"
     cy="509.41"
     id="circle254" />
  <circle
     fill="#ffbb78"
     r="15"
     cx="841.67"
     cy="68.573"
     id="circle256" />
  <circle
     fill="#2ca02c"
     r="15"
     cx="276.01"
     cy="416.62"
     id="circle258" />
  <circle
     fill="#98df8a"
     r="15"
     cx="613.98"
     cy="458.16"
     id="circle260" />
  <circle
     fill="#d62728"
     r="15"
     cx="250.69"
     cy="499.71"
     id="circle262" />
  <circle
     fill="#ff9896"
     r="15"
     cx="469.65"
     cy="663.19"
     id="circle264" />
  <circle
     fill="#9467bd"
     r="15"
     cx="474"
     cy="453.41"
     id="circle266" />
  <circle
     fill="#c5b0d5"
     r="15"
     cx="584.79"
     cy="199.59"
     id="circle268" />
  <circle
     fill="#8c564b"
     r="15"
     cx="679.67"
     cy="611.96"
     id="circle270" />
  <circle
     fill="#c49c94"
     r="15"
     cx="762.66"
     cy="702.75"
     id="circle272" />
  <circle
     fill="#e377c2"
     r="15"
     cx="449.26"
     cy="541.26"
     id="circle274" />
  <circle
     fill="#f7b6d2"
     r="15"
     cx="748.93"
     cy="879.56"
     id="circle276" />
  <circle
     fill="#7f7f7f"
     r="15"
     cx="1010.9"
     cy="760.12"
     id="circle278" />
  <circle
     fill="#c7c7c7"
     r="15"
     cx="47.82"
     cy="235.06"
     id="circle280" />
  <circle
     fill="#bcbd22"
     r="15"
     cx="477.65"
     cy="268.32"
     id="circle282" />
  <circle
     fill="#dbdb8d"
     r="15"
     cx="576.39"
     cy="586.56"
     id="circle284" />
  <circle
     fill="#17becf"
     r="15"
     cx="478.55"
     cy="314.43"
     id="circle286" />
  <circle
     fill="#9edae5"
     r="15"
     cx="798.29"
     cy="379.64"
     id="circle288" />
  <circle
     fill="#1f77b4"
     r="15"
     cx="96.831"
     cy="525.88"
     id="circle290" />
  <circle
     fill="#aec7e8"
     r="15"
     cx="723.49"
     cy="960.29"
     id="circle292" />
  <circle
     fill="#ff7f0e"
     r="15"
     cx="773.7"
     cy="427.16"
     id="circle294" />
  <circle
     fill="#ffbb78"
     r="15"
     cx="360.64"
     cy="410.87"
     id="circle296" />
  <circle
     fill="#2ca02c"
     r="15"
     cx="831.08"
     cy="650.67"
     id="circle298" />
  <circle
     fill="#98df8a"
     r="15"
     cx="504.75"
     cy="53.017"
     id="circle300" />
  <circle
     fill="#d62728"
     r="15"
     cx="627.05"
     cy="535.5"
     id="circle302" />
  <g
     id="g239"
     fill="#151515"
     font-family="Roboto"
     font-size="15px">
    <text
       class="nodelabel"
       x="464.27728"
       y="812.49731"
       line-height="125%"
       display="block"
       style="white-space:nowrap"
       id="text304">,</text>
    <text
       class="nodelabel"
       x="507.08459"
       y="521.77826"
       line-height="125%"
       display="block"
       style="white-space:nowrap"
       id="text306">---</text>
    <text
       class="nodelabel"
       x="296.60437"
       y="552.31519"
       line-height="125%"
       display="block"
       style="white-space:nowrap"
       id="text308">.</text>
    <text
       class="nodelabel"
       x="603.32495"
       y="630.25671"
       line-height="125%"
       display="block"
       style="white-space:nowrap"
       id="text310">:</text>
    <text
       class="nodelabel"
       x="258.9859"
       y="560.58258"
       line-height="125%"
       display="block"
       style="white-space:nowrap"
       id="text312">?</text>
    <text
       class="nodelabel"
       x="578.52496"
       y="916.93463"
       line-height="125%"
       display="block"
       style="white-space:nowrap"
       id="text314">a</text>
    <text
       class="nodelabel"
       x="574.39551"
       y="553.49054"
       line-height="125%"
       display="block"
       style="white-space:nowrap"
       id="text316">about</text>
    <text
       class="nodelabel"
       x="897.53705"
       y="636.42517"
       line-height="125%"
       display="block"
       style="white-space:nowrap"
       id="text318">again</text>
    <text
       class="nodelabel"
       x="337.0126"
       y="391.96289"
       line-height="125%"
       display="block"
       style="white-space:nowrap"
       id="text320">and</text>
    <text
       class="nodelabel"
       x="564.20996"
       y="221.50816"
       line-height="125%"
       display="block"
       style="white-space:nowrap"
       id="text322">another</text>
    <text
       class="nodelabel"
       x="604.38129"
       y="675.69116"
       line-height="125%"
       display="block"
       style="white-space:nowrap"
       id="text324">anymore</text>
    <text
       class="nodelabel"
       x="618.88043"
       y="361.16071"
       line-height="125%"
       display="block"
       style="white-space:nowrap"
       id="text326">anywhere</text>
    <text
       class="nodelabel"
       x="814.22766"
       y="213.89992"
       line-height="125%"
       display="block"
       style="white-space:nowrap"
       id="text328">are</text>
    <text
       class="nodelabel"
       x="670.70575"
       y="298.03577"
       line-height="125%"
       display="block"
       style="white-space:nowrap"
       id="text330">ask</text>
    <text
       class="nodelabel"
       x="937.78552"
       y="556.00671"
       line-height="125%"
       display="block"
       style="white-space:nowrap"
       id="text332">away</text>
    <text
       class="nodelabel"
       x="467.48297"
       y="514.27911"
       line-height="125%"
       display="block"
       style="white-space:nowrap"
       id="text334">be</text>
    <text
       class="nodelabel"
       x="396.04306"
       y="272.90555"
       line-height="125%"
       display="block"
       style="white-space:nowrap"
       id="text336">bird</text>
    <text
       class="nodelabel"
       x="290.16275"
       y="805.11914"
       line-height="125%"
       display="block"
       style="white-space:nowrap"
       id="text338">blink</text>
    <text
       class="nodelabel"
       x="764.43311"
       y="298.3631"
       line-height="125%"
       display="block"
       style="white-space:nowrap"
       id="text340">blue</text>
    <text
       class="nodelabel"
       x="386.56876"
       y="760.5484"
       line-height="125%"
       display="block"
       style="white-space:nowrap"
       id="text342">breath</text>
    <text
       class="nodelabel"
       x="225.35713"
       y="258.62915"
       line-height="125%"
       display="block"
       style="white-space:nowrap"
       id="text344">breathing</text>
    <text
       class="nodelabel"
       x="645.66339"
       y="256.15338"
       line-height="125%"
       display="block"
       style="white-space:nowrap"
       id="text346">by</text>
    <text
       class="nodelabel"
       x="953.53119"
       y="461.0368"
       line-height="125%"
       display="block"
       style="white-space:nowrap"
       id="text348">drifting</text>
    <text
       class="nodelabel"
       x="669.49817"
       y="278.07898"
       line-height="125%"
       display="block"
       style="white-space:nowrap"
       id="text350">else</text>
    <text
       class="nodelabel"
       x="354.00089"
       y="581.80316"
       line-height="125%"
       display="block"
       style="white-space:nowrap"
       id="text352">eyelids</text>
    <text
       class="nodelabel"
       x="450.68021"
       y="80.105469"
       line-height="125%"
       display="block"
       style="white-space:nowrap"
       id="text354">focusing</text>
    <text
       class="nodelabel"
       x="258.73468"
       y="701.14331"
       line-height="125%"
       display="block"
       style="white-space:nowrap"
       id="text356">for</text>
    <text
       class="nodelabel"
       x="477.55518"
       y="925.77679"
       line-height="125%"
       display="block"
       style="white-space:nowrap"
       id="text358">from</text>
    <text
       class="nodelabel"
       x="706.71393"
       y="319.47998"
       line-height="125%"
       display="block"
       style="white-space:nowrap"
       id="text360">going</text>
    <text
       class="nodelabel"
       x="313.3302"
       y="274.26584"
       line-height="125%"
       display="block"
       style="white-space:nowrap"
       id="text362">if</text>
    <text
       class="nodelabel"
       x="26.082609"
       y="307.66794"
       line-height="125%"
       display="block"
       style="white-space:nowrap"
       id="text364">in</text>
    <text
       class="nodelabel"
       x="425.18427"
       y="319.89502"
       line-height="125%"
       display="block"
       style="white-space:nowrap"
       id="text366">incense</text>
    <text
       class="nodelabel"
       x="306.77518"
       y="310.85327"
       line-height="125%"
       display="block"
       style="white-space:nowrap"
       id="text368">instead</text>
    <text
       class="nodelabel"
       x="537.04596"
       y="572.42535"
       line-height="125%"
       display="block"
       style="white-space:nowrap"
       id="text370">is</text>
    <text
       class="nodelabel"
       x="465.40585"
       y="222.44557"
       line-height="125%"
       display="block"
       style="white-space:nowrap"
       id="text372">it</text>
    <text
       class="nodelabel"
       x="556.71307"
       y="476.67029"
       line-height="125%"
       display="block"
       style="white-space:nowrap"
       id="text374">lands</text>
    <text
       class="nodelabel"
       x="759.22382"
       y="320.75623"
       line-height="125%"
       display="block"
       style="white-space:nowrap"
       id="text376">like</text>
    <text
       class="nodelabel"
       x="426.72018"
       y="1034"
       line-height="125%"
       display="block"
       style="white-space:nowrap"
       id="text378">little</text>
    <text
       class="nodelabel"
       x="668.76929"
       y="665.6734"
       line-height="125%"
       display="block"
       style="white-space:nowrap"
       id="text380">make</text>
    <text
       class="nodelabel"
       x="331.16357"
       y="724.81512"
       line-height="125%"
       display="block"
       style="white-space:nowrap"
       id="text382">on</text>
    <text
       class="nodelabel"
       x="443.67188"
       y="202.10802"
       line-height="125%"
       display="block"
       style="white-space:nowrap"
       id="text384">one</text>
    <text
       class="nodelabel"
       x="716.81"
       y="744.612"
       line-height="125%"
       display="block"
       style="white-space:nowrap"
       id="text386">or</text>
    <text
       class="nodelabel"
       x="185.19006"
       y="509.41205"
       line-height="125%"
       display="block"
       style="white-space:nowrap"
       id="text388">our</text>
    <text
       class="nodelabel"
       x="841.66718"
       y="68.572906"
       line-height="125%"
       display="block"
       style="white-space:nowrap"
       id="text390">ourselves</text>
    <text
       class="nodelabel"
       x="276.01413"
       y="416.61761"
       line-height="125%"
       display="block"
       style="white-space:nowrap"
       id="text392">passing</text>
    <text
       class="nodelabel"
       x="613.97968"
       y="458.1637"
       line-height="125%"
       display="block"
       style="white-space:nowrap"
       id="text394">place</text>
    <text
       class="nodelabel"
       x="250.68567"
       y="499.71429"
       line-height="125%"
       display="block"
       style="white-space:nowrap"
       id="text396">reminding</text>
    <text
       class="nodelabel"
       x="469.64728"
       y="663.18896"
       line-height="125%"
       display="block"
       style="white-space:nowrap"
       id="text398">rushing</text>
    <text
       class="nodelabel"
       x="473.99683"
       y="453.41205"
       line-height="125%"
       display="block"
       style="white-space:nowrap"
       id="text400">should</text>
    <text
       class="nodelabel"
       x="584.78613"
       y="199.58827"
       line-height="125%"
       display="block"
       style="white-space:nowrap"
       id="text402">singing</text>
    <text
       class="nodelabel"
       x="679.67096"
       y="611.96405"
       line-height="125%"
       display="block"
       style="white-space:nowrap"
       id="text404">smoke</text>
    <text
       class="nodelabel"
       x="762.66412"
       y="702.74799"
       line-height="125%"
       display="block"
       style="white-space:nowrap"
       id="text406">softmurmurs</text>
    <text
       class="nodelabel"
       x="449.26163"
       y="541.26215"
       line-height="125%"
       display="block"
       style="white-space:nowrap"
       id="text408">something</text>
    <text
       class="nodelabel"
       x="748.93475"
       y="879.55835"
       line-height="125%"
       display="block"
       style="white-space:nowrap"
       id="text410">sound</text>
    <text
       class="nodelabel"
       x="1010.879"
       y="760.11945"
       line-height="125%"
       display="block"
       style="white-space:nowrap"
       id="text412">stick</text>
    <text
       class="nodelabel"
       x="47.81958"
       y="235.05791"
       line-height="125%"
       display="block"
       style="white-space:nowrap"
       id="text414">still</text>
    <text
       class="nodelabel"
       x="477.64648"
       y="268.32385"
       line-height="125%"
       display="block"
       style="white-space:nowrap"
       id="text416">street</text>
    <text
       class="nodelabel"
       x="576.39478"
       y="586.55981"
       line-height="125%"
       display="block"
       style="white-space:nowrap"
       id="text418">the</text>
    <text
       class="nodelabel"
       x="478.5545"
       y="314.43475"
       line-height="125%"
       display="block"
       style="white-space:nowrap"
       id="text420">there</text>
    <text
       class="nodelabel"
       x="798.28503"
       y="379.63568"
       line-height="125%"
       display="block"
       style="white-space:nowrap"
       id="text422">this</text>
    <text
       class="nodelabel"
       x="96.831047"
       y="525.8819"
       line-height="125%"
       display="block"
       style="white-space:nowrap"
       id="text424">thought</text>
    <text
       class="nodelabel"
       x="723.49316"
       y="960.28632"
       line-height="125%"
       display="block"
       style="white-space:nowrap"
       id="text426">us</text>
    <text
       class="nodelabel"
       x="773.70044"
       y="427.15924"
       line-height="125%"
       display="block"
       style="white-space:nowrap"
       id="text428">way</text>
    <text
       class="nodelabel"
       x="360.63547"
       y="410.87402"
       line-height="125%"
       display="block"
       style="white-space:nowrap"
       id="text430">we</text>
    <text
       class="nodelabel"
       x="831.07788"
       y="650.67377"
       line-height="125%"
       display="block"
       style="white-space:nowrap"
       id="text432">when</text>
    <text
       class="nodelabel"
       x="504.74988"
       y="53.016727"
       line-height="125%"
       display="block"
       style="white-space:nowrap"
       id="text434">while</text>
    <text
       class="nodelabel"
       x="627.05255"
       y="535.4978"
       line-height="125%"
       display="block"
       style="white-space:nowrap"
       id="text436">windowsill</text>
  </g>
  <g
     id="g308"
     fill-opacity="0"
     stroke-opacity="0">
    <path
       class="edgepath"
       d="m464.28 812.5 72.77-240.07"
       id="edgepath0" />
    <path
       class="edgepath"
       d="m464.28 812.5-110.28-230.7"
       id="edgepath1" />
    <path
       class="edgepath"
       d="m464.28 812.5-213.59-312.79"
       id="edgepath2" />
    <path
       class="edgepath"
       d="m464.28 812.5 92.43-335.83"
       id="edgepath3" />
    <path
       class="edgepath"
       d="m507.08 521.78 163.63-223.74"
       id="edgepath4" />
    <path
       class="edgepath"
       d="m507.08 521.78-200.3-210.93"
       id="edgepath5" />
    <path
       class="edgepath"
       d="m296.6 552.32 168.81-329.87"
       id="edgepath6" />
    <path
       class="edgepath"
       d="m296.6 552.32"
       id="edgepath7" />
    <path
       class="edgepath"
       d="m296.6 552.32 181.05-284"
       id="edgepath8" />
    <path
       class="edgepath"
       d="m296.6 552.32 181.95-237.89"
       id="edgepath9" />
    <path
       class="edgepath"
       d="m296.6 552.32 167.67 260.18"
       id="edgepath10" />
    <path
       class="edgepath"
       d="m603.32 630.26 294.21 6.1684"
       id="edgepath11" />
    <path
       class="edgepath"
       d="m603.32 630.26 161.11-331.9"
       id="edgepath12" />
    <path
       class="edgepath"
       d="m258.99 560.58 278.06 11.843"
       id="edgepath13" />
    <path
       class="edgepath"
       d="m258.99 560.58 205.29 251.92"
       id="edgepath14" />
    <path
       class="edgepath"
       d="m578.52 916.93 90.25-251.26"
       id="edgepath15" />
    <path
       class="edgepath"
       d="m578.52 916.93 25.86-241.24"
       id="edgepath16" />
    <path
       class="edgepath"
       d="m578.52 916.93-191.95-156.38"
       id="edgepath17" />
    <path
       class="edgepath"
       d="m578.52 916.93-247.36-192.11"
       id="edgepath18" />
    <path
       class="edgepath"
       d="m574.4 553.49-315.41 7.09"
       id="edgepath19" />
    <path
       class="edgepath"
       d="m574.4 553.49-237.39-161.53"
       id="edgepath20" />
    <path
       class="edgepath"
       d="m897.54 636.43-283.56-178.27"
       id="edgepath21" />
    <path
       class="edgepath"
       d="m897.54 636.43-323.14-82.94"
       id="edgepath22" />
    <path
       class="edgepath"
       d="m337.01 391.96 200.03 180.46"
       id="edgepath23" />
    <path
       class="edgepath"
       d="m337.01 391.96 106.66-189.85"
       id="edgepath24" />
    <path
       class="edgepath"
       d="m337.01 391.96 239.38 194.6"
       id="edgepath25" />
    <path
       class="edgepath"
       d="m337.01 391.96 266.31 238.3"
       id="edgepath26" />
    <path
       class="edgepath"
       d="m337.01 391.96-5.85 332.86"
       id="edgepath27" />
    <path
       class="edgepath"
       d="m564.21 221.51 250.02-7.6082"
       id="edgepath28" />
    <path
       class="edgepath"
       d="m564.21 221.51 12.185 365.05"
       id="edgepath29" />
    <path
       class="edgepath"
       d="m604.38 675.69-307.78-123.37"
       id="edgepath30" />
    <path
       class="edgepath"
       d="m604.38 675.69 293.16-39.26"
       id="edgepath31" />
    <path
       class="edgepath"
       d="m618.88 361.16-258.24 49.71"
       id="edgepath32" />
    <path
       class="edgepath"
       d="m618.88 361.16-312.1-50.31"
       id="edgepath33" />
    <path
       class="edgepath"
       d="m814.23 213.9-187.18 321.6"
       id="edgepath34" />
    <path
       class="edgepath"
       d="m814.23 213.9"
       id="edgepath35" />
    <path
       class="edgepath"
       d="m814.23 213.9-336.58 54.42"
       id="edgepath36" />
    <path
       class="edgepath"
       d="m670.71 298.04-394.7 118.58"
       id="edgepath37" />
    <path
       class="edgepath"
       d="m670.71 298.04-133.66 274.39"
       id="edgepath38" />
    <path
       class="edgepath"
       d="m937.79 556.01-178.57-235.25"
       id="edgepath39" />
    <path
       class="edgepath"
       d="m937.79 556.01 73.11 204.11"
       id="edgepath40" />
    <path
       class="edgepath"
       d="m467.48 514.28 239.23-194.8"
       id="edgepath41" />
    <path
       class="edgepath"
       d="m467.48 514.28 202.02-236.2"
       id="edgepath42" />
    <path
       class="edgepath"
       d="m396.04 272.91-210.85 236.51"
       id="edgepath43" />
    <path
       class="edgepath"
       d="m396.04 272.91 231.01 262.59"
       id="edgepath44" />
    <path
       class="edgepath"
       d="m290.16 805.12 286.23-218.56"
       id="edgepath45" />
    <path
       class="edgepath"
       d="m290.16 805.12 288.36 111.82"
       id="edgepath46" />
    <path
       class="edgepath"
       d="m764.43 298.36-190.03 255.13"
       id="edgepath47" />
    <path
       class="edgepath"
       d="m764.43 298.36-188.04 288.2"
       id="edgepath48" />
    <path
       class="edgepath"
       d="m386.57 760.55 376.1-57.8"
       id="edgepath49" />
    <path
       class="edgepath"
       d="m386.57 760.55 40.15 273.45"
       id="edgepath50" />
    <path
       class="edgepath"
       d="m283.82 279.2 12.786 273.12"
       id="edgepath51" />
    <path
       class="edgepath"
       d="m283.82 279.2-186.99 246.68"
       id="edgepath52" />
    <path
       class="edgepath"
       d="m645.66 256.15-361.84 23.05"
       id="edgepath53" />
    <path
       class="edgepath"
       d="m645.66 256.15-140.91-203.13"
       id="edgepath54" />
    <path
       class="edgepath"
       d="m953.53 461.04-284.03-182.96"
       id="edgepath55" />
    <path
       class="edgepath"
       d="m953.53 461.04 57.37 299.08"
       id="edgepath56" />
    <path
       class="edgepath"
       d="m669.5 278.08-308.86 132.79"
       id="edgepath57" />
    <path
       class="edgepath"
       d="m669.5 278.08 10.173 333.89"
       id="edgepath58" />
    <path
       class="edgepath"
       d="m354 581.8 71.18-261.9"
       id="edgepath59" />
    <path
       class="edgepath"
       d="m354 581.8-63.84 223.32"
       id="edgepath60" />
    <path
       class="edgepath"
       d="m450.68 80.105 168.2 281.06"
       id="edgepath61" />
    <path
       class="edgepath"
       d="m450.68 80.105 308.54 240.66"
       id="edgepath62" />
    <path
       class="edgepath"
       d="m258.73 701.14 101.91-290.27"
       id="edgepath63" />
    <path
       class="edgepath"
       d="m258.73 701.14 317.66-114.58"
       id="edgepath64" />
    <path
       class="edgepath"
       d="m477.56 925.78 98.83-339.22"
       id="edgepath65" />
    <path
       class="edgepath"
       d="m477.56 925.78 239.25-181.17"
       id="edgepath66" />
    <path
       class="edgepath"
       d="m706.71 319.48-201.96-266.46"
       id="edgepath67" />
    <path
       class="edgepath"
       d="m706.71 319.48-232.71 133.93"
       id="edgepath68" />
    <path
       class="edgepath"
       d="m313.33 274.27-288.33 57.22"
       id="edgepath69" />
    <path
       class="edgepath"
       d="m313.33 274.27 305.55 86.89"
       id="edgepath70" />
    <path
       class="edgepath"
       d="m313.33 274.27 154.15 240.01"
       id="edgepath71" />
    <path
       class="edgepath"
       d="m25 331.49 271.6 220.83"
       id="edgepath72" />
    <path
       class="edgepath"
       d="m25 331.49 335.64 79.38"
       id="edgepath73" />
    <path
       class="edgepath"
       d="m425.18 319.9 151.21 266.66"
       id="edgepath74" />
    <path
       class="edgepath"
       d="m425.18 319.9-239.99 189.51"
       id="edgepath75" />
    <path
       class="edgepath"
       d="m306.78 310.85 230.27 261.58"
       id="edgepath76" />
    <path
       class="edgepath"
       d="m306.78 310.85 142.48 230.41"
       id="edgepath77" />
    <path
       class="edgepath"
       d="m537.05 572.43-59.4-304.11"
       id="edgepath78" />
    <path
       class="edgepath"
       d="m537.05 572.43-223.72-298.16"
       id="edgepath79" />
    <path
       class="edgepath"
       d="m537.05 572.43 236.65-145.27"
       id="edgepath80" />
    <path
       class="edgepath"
       d="m537.05 572.43-111.87-252.53"
       id="edgepath81" />
    <path
       class="edgepath"
       d="m537.05 572.43 41.479 344.51"
       id="edgepath82" />
    <path
       class="edgepath"
       d="m537.05 572.43-286.36-72.72"
       id="edgepath83" />
    <path
       class="edgepath"
       d="m537.05 572.43-253.23-293.23"
       id="edgepath84" />
    <path
       class="edgepath"
       d="m465.41 222.45 299.02 75.91"
       id="edgepath85" />
    <path
       class="edgepath"
       d="m465.41 222.45 348.82-8.5456"
       id="edgepath86" />
    <path
       class="edgepath"
       d="m556.71 476.67-170.14 283.88"
       id="edgepath87" />
    <path
       class="edgepath"
       d="m556.71 476.67-260.11 75.645"
       id="edgepath88" />
    <path
       class="edgepath"
       d="m759.22 320.76-285.22 132.65"
       id="edgepath89" />
    <path
       class="edgepath"
       d="m759.22 320.76-222.17 251.67"
       id="edgepath90" />
    <path
       class="edgepath"
       d="m426.72 1034 296.77-73.71"
       id="edgepath91" />
    <path
       class="edgepath"
       d="m426.72 1034-95.56-309.18"
       id="edgepath92" />
    <path
       class="edgepath"
       d="m668.77 665.67 342.13 94.45"
       id="edgepath93" />
    <path
       class="edgepath"
       d="m668.77 665.67-372.17-113.35"
       id="edgepath94" />
    <path
       class="edgepath"
       d="m331.16 724.82 175.92-203.04"
       id="edgepath95" />
    <path
       class="edgepath"
       d="m331.16 724.82 245.23-138.26"
       id="edgepath96" />
    <path
       class="edgepath"
       d="m331.16 724.82 295.89-189.32"
       id="edgepath97" />
    <path
       class="edgepath"
       d="m331.16 724.82 5.849-332.85"
       id="edgepath98" />
    <path
       class="edgepath"
       d="m443.67 202.11-147.07 350.21"
       id="edgepath99" />
    <path
       class="edgepath"
       d="m443.67 202.11 201.99 54.045"
       id="edgepath100" />
    <path
       class="edgepath"
       d="m716.81 744.61 236.72-283.57"
       id="edgepath101" />
    <path
       class="edgepath"
       d="m716.81 744.61-362.81-162.81"
       id="edgepath102" />
    <path
       class="edgepath"
       d="m185.19 509.41 391.2 77.148"
       id="edgepath103" />
    <path
       class="edgepath"
       d="m185.19 509.41 175.45-98.54"
       id="edgepath104" />
    <path
       class="edgepath"
       d="m185.19 509.41 389.21 44.078"
       id="edgepath105" />
    <path
       class="edgepath"
       d="m185.19 509.41 145.97 215.41"
       id="edgepath106" />
    <path
       class="edgepath"
       d="m841.67 68.573-196.01 187.58"
       id="edgepath107" />
    <path
       class="edgepath"
       d="m841.67 68.573-134.96 250.91"
       id="edgepath108" />
    <path
       class="edgepath"
       d="m276.01 416.62-228.19-181.56"
       id="edgepath109" />
    <path
       class="edgepath"
       d="m276.01 416.62 201.64-148.3"
       id="edgepath110" />
    <path
       class="edgepath"
       d="m613.98 458.16 217.1 192.51"
       id="edgepath111" />
    <path
       class="edgepath"
       d="m613.98 458.16-354.99 102.42"
       id="edgepath112" />
    <path
       class="edgepath"
       d="m250.69 499.71 218.96 163.48"
       id="edgepath113" />
    <path
       class="edgepath"
       d="m250.69 499.71 135.88 260.84"
       id="edgepath114" />
    <path
       class="edgepath"
       d="m469.65 663.19-179.49 141.93"
       id="edgepath115" />
    <path
       class="edgepath"
       d="m469.65 663.19 293.02 39.559"
       id="edgepath116" />
    <path
       class="edgepath"
       d="m474 453.41 324.28-73.77"
       id="edgepath117" />
    <path
       class="edgepath"
       d="m474 453.41-142.84 271.41"
       id="edgepath118" />
    <path
       class="edgepath"
       d="m584.79 199.59-28.073 277.08"
       id="edgepath119" />
    <path
       class="edgepath"
       d="m584.79 199.59-247.78 192.37"
       id="edgepath120" />
    <path
       class="edgepath"
       d="m679.67 611.96-348.51 112.86"
       id="edgepath121" />
    <path
       class="edgepath"
       d="m679.67 611.96-254.49-292.06"
       id="edgepath122" />
    <path
       class="edgepath"
       d="m762.66 702.75-184.14 214.18"
       id="edgepath123" />
    <path
       class="edgepath"
       d="m762.66 702.75-39.171 257.54"
       id="edgepath124" />
    <path
       class="edgepath"
       d="m449.26 541.26-135.93-266.99"
       id="edgepath125" />
    <path
       class="edgepath"
       d="m449.26 541.26 324.44-114.1"
       id="edgepath126" />
    <path
       class="edgepath"
       d="m748.93 879.56-271.38 46.218"
       id="edgepath127" />
    <path
       class="edgepath"
       d="m748.93 879.56 82.15-228.89"
       id="edgepath128" />
    <path
       class="edgepath"
       d="m1010.9 760.12-331.23-148.16"
       id="edgepath129" />
    <path
       class="edgepath"
       d="m1010.9 760.12-261.97 119.44"
       id="edgepath130" />
    <path
       class="edgepath"
       d="m47.82 235.06 312.82 175.81"
       id="edgepath131" />
    <path
       class="edgepath"
       d="m47.82 235.06 49.011 290.82"
       id="edgepath132" />
    <path
       class="edgepath"
       d="m477.65 268.32-380.82 257.56"
       id="edgepath133" />
    <path
       class="edgepath"
       d="m477.65 268.32 364.02-199.75"
       id="edgepath134" />
    <path
       class="edgepath"
       d="m576.39 586.56-132.72-384.45"
       id="edgepath135" />
    <path
       class="edgepath"
       d="m576.39 586.56 94.32-288.52"
       id="edgepath136" />
    <path
       class="edgepath"
       d="m576.39 586.56 182.83-265.8"
       id="edgepath137" />
    <path
       class="edgepath"
       d="m576.39 586.56 361.4-30.55"
       id="edgepath138" />
    <path
       class="edgepath"
       d="m576.39 586.56 172.54 293"
       id="edgepath139" />
    <path
       class="edgepath"
       d="m576.39 586.56 254.68 64.114"
       id="edgepath140" />
    <path
       class="edgepath"
       d="m576.39 586.56 321.14 49.865"
       id="edgepath141" />
    <path
       class="edgepath"
       d="m576.39 586.56-239.38-194.6"
       id="edgepath142" />
    <path
       class="edgepath"
       d="m576.39 586.56 8.3914-386.97"
       id="edgepath143" />
    <path
       class="edgepath"
       d="m478.55 314.43-124.55 267.37"
       id="edgepath144" />
    <path
       class="edgepath"
       d="m478.55 314.43-8.9072 348.75"
       id="edgepath145" />
    <path
       class="edgepath"
       d="m798.28 379.64-221.89 206.92"
       id="edgepath146" />
    <path
       class="edgepath"
       d="m798.28 379.64-291.2 142.14"
       id="edgepath147" />
    <path
       class="edgepath"
       d="m96.831 525.88 240.18-133.92"
       id="edgepath148" />
    <path
       class="edgepath"
       d="m96.831 525.88-71.831-194.39"
       id="edgepath149" />
    <path
       class="edgepath"
       d="m723.49 960.29-119.11-284.6"
       id="edgepath150" />
    <path
       class="edgepath"
       d="m723.49 960.29-120.17-330.03"
       id="edgepath151" />
    <path
       class="edgepath"
       d="m773.7 427.16-306.22 87.12"
       id="edgepath152" />
    <path
       class="edgepath"
       d="m773.7 427.16 164.09 128.85"
       id="edgepath153" />
    <path
       class="edgepath"
       d="m360.64 410.87 215.75 175.69"
       id="edgepath154" />
    <path
       class="edgepath"
       d="m360.64 410.87"
       id="edgepath155" />
    <path
       class="edgepath"
       d="m360.64 410.87 203.57-189.36"
       id="edgepath156" />
    <path
       class="edgepath"
       d="m360.64 410.87 346.07-91.39"
       id="edgepath157" />
    <path
       class="edgepath"
       d="m360.64 410.87-29.48 313.95"
       id="edgepath158" />
    <path
       class="edgepath"
       d="m360.64 410.87-70.48 394.25"
       id="edgepath159" />
    <path
       class="edgepath"
       d="m831.08 650.67-366.8 161.83"
       id="edgepath160" />
    <path
       class="edgepath"
       d="m831.08 650.67-294.03-78.24"
       id="edgepath161" />
    <path
       class="edgepath"
       d="m504.75 53.017-167.74 338.94"
       id="edgepath162" />
    <path
       class="edgepath"
       d="m504.75 53.017-191.42 221.25"
       id="edgepath163" />
    <path
       class="edgepath"
       d="m627.05 535.5-48.53 381.43"
       id="edgepath164" />
    <path
       class="edgepath"
       d="m627.05 535.5-42.26-335.91"
       id="edgepath165" />
  </g>
  <defs
     id="defs604">
    <marker
       markerHeight="10"
       markerWidth="10"
       xoverflow="visible"
       viewBox="-0 -5 10 10"
       orient="auto"
       refX="25"
       refY="0"
       id="arrowhead">
      <path
         stroke="#ccc"
         d="m0-5 10 5-10 5"
         fill="#ccc"
         id="path607" />
    </marker>
  </defs>
</svg>
